;LEADER: 12 
;HEADER: 
;CODE  : ASCII 
;FILE  : etl_etroc_module_v21_ws_sym-1-6.drl for  ... layers TOP and BOTTOM
;DESIGN: etl_etroc_module_v2.1_ws_sym.brd
;   Holesize 1. = 7.870000 Tolerance = +3.000000/-3.000000 PLATED MILS Quantity = 326
%
G90
X0507100Y0216000
X0573900Y0214100
X0591100Y0221200
X0655300Y0208500
X0579800Y0114100
X0491881Y0020722
X0556081Y0008022
X0573581Y0015122
X0640081Y0013222
X0505981Y0014522
X0502100Y0014300
X0583881Y0007522
X0641200Y0214700
X0563300Y0221700
X0645300Y0215600
X0498381Y0019922
X0507262Y0018007
X0504458Y0016184
X0515581Y0013722
X0561614Y0014889
X0566307Y0019532
X0586074Y0015243
X0582738Y0019532
X0592193Y0019532
X0595389Y0015674
X0646618Y0017208
X0650581Y0019622
X0571500Y0078000
X0573500Y0078000
X0571500Y0080000
X0573500Y0080000
X0571500Y0082000
X0573500Y0082000
X0575500Y0078000
R02Y0002000
X0561107Y0213979
X0564443Y0209690
X0554988Y0209690
X0551792Y0213548
X0500563Y0212014
X0496600Y0209600
X0648800Y0209300
X0639919Y0211215
X0643600Y0213200
X0631600Y0215500
X0585567Y0214333
X0580874Y0209690
X0657180Y0005621
X0490001Y0223601
X0651894Y0224200
X0495287Y0005022
X0651300Y0214700
X0577724Y0019532
X0580681Y0014422
X0609669Y0019532
X0618546Y0015725
X0622145Y0019532
X0628593Y0019532
X0632183Y0015937
X0600767Y0214700
X0581200Y0138800
X0579200Y0138800
X0579200Y0140700
R02Y0002000
X0581200Y0140700
R02Y0002000
X0655200Y0211500
X0623331Y0209690
X0616425Y0209729
X0609339Y0209729
X0598213Y0212163
X0495900Y0014600
X0546414Y0014522
X0491981Y0017722
X0530756Y0019493
X0523850Y0019532
X0537842Y0019493
X0548968Y0017059
X0566500Y0214800
X0555200Y0125600
X0564500Y0119100
X0568800Y0147900
R02X-0002000
X0568800Y0145900
R02X-0002000
X0568800Y0143900
R02X-0002000
X0569457Y0209690
X0537512Y0209690
X0528635Y0213497
X0525036Y0209690
X0514998Y0213285
X0518588Y0209690
X0550323Y0011973
X0627252Y0010359
X0519929Y0218863
X0596858Y0217249
X0618630Y0219099
X0532200Y0217200
X0565381Y0011722
X0495500Y0214800
X0641866Y0209690
X0505315Y0019532
X0528551Y0010123
X0588748Y0015694
X0621051Y0007258
X0627059Y0007206
X0613846Y0009985
X0617300Y0217200
X0494700Y0012886
X0552181Y0005622
X0552322Y0011422
X0583381Y0010922
X0629653Y0008824
X0517528Y0220398
X0563800Y0218300
X0594859Y0217800
X0595000Y0223600
X0652481Y0216336
X0552989Y0215290
X0647200Y0214700
X0606400Y0224300
X0605200Y0219400
X0510023Y0209493
X0595080Y0211348
X0499900Y0014600
X0540781Y0004922
X0541981Y0009822
X0552101Y0017874
X0594192Y0013932
X0637158Y0019729
X0558433Y0213528
X0526130Y0221964
X0520122Y0222016
X0533335Y0219237
X0529881Y0012022
X0651681Y0014422
X0581800Y0217500
X0614981Y0012022
X0652881Y0019604
X0517581Y0019722
X0508881Y0020016
X0652134Y0028981
X0648510Y0019525
X0644968Y0019493
X0641964Y0019532
X0632449Y0028981
X0634583Y0019382
X0631762Y0019290
X0625550Y0019532
X0623564Y0011963
X0618669Y0028981
X0618505Y0019532
X0612449Y0019532
X0605362Y0019532
X0601386Y0019532
X0597016Y0034887
X0594779Y0019532
X0591898Y0010576
X0589085Y0019532
X0585580Y0019532
X0577331Y0028981
X0580279Y0019532
X0580481Y0007022
X0569457Y0028981
X0575067Y0019532
X0569496Y0019532
X0563566Y0019532
X0562670Y0007721
X0557991Y0019322
X0554295Y0019322
X0559402Y0007878
X0549772Y0028981
X0549745Y0019532
X0546665Y0019532
X0540510Y0019407
X0539496Y0013509
X0539142Y0010359
X0534850Y0019532
X0526708Y0019532
X0506464Y0028981
X0502381Y0019622
X0500381Y0019619
X0492881Y0029122
X0492781Y0024222
X0495530Y0019722
X0489700Y0012647
X0547381Y0011922
X0554281Y0012222
X0577770Y0011911
X0612370Y0015950
X0624469Y0013844
X0638081Y0012065
X0569411Y0217311
X0509100Y0217157
X0599800Y0217300
X0592900Y0217000
X0566700Y0222200
X0579568Y0135282
X0579568Y0127015
X0579568Y0131148
X0579568Y0118747
X0579568Y0122881
X0579568Y0100833
X0579568Y0096700
X0579568Y0088432
X0567614Y0138038
R02Y-0004134
X0567614Y0125637
X0567614Y0104967
X0567614Y0100833
X0567614Y0096700
X0567614Y0092566
X0567614Y0088432
X0579568Y0092566
X0657300Y0216575
X0629600Y0209500
X0572114Y0209690
X0494300Y0209618
X0498671Y0209697
X0505217Y0209690
X0502213Y0209729
X0512598Y0209840
X0515419Y0209932
X0521631Y0209690
X0522712Y0215378
X0523617Y0217259
X0528676Y0209690
X0534811Y0213272
X0534732Y0209690
X0541819Y0209690
X0545795Y0209690
X0552402Y0209690
X0555283Y0218646
X0561601Y0209690
X0558096Y0209690
X0491110Y0048666
X0510795Y0048666
X0528512Y0050635
X0530480Y0068351
X0552547Y0050197
X0550165Y0088036
X0550165Y0107721
X0526510Y0168256
X0495047Y0200241
X0508827Y0180556
X0514732Y0200241
X0524575Y0180556
X0528512Y0200241
X0534417Y0162839
X0550165Y0141186
X0550165Y0176619
X0550165Y0194335
X0569850Y0200241
X0566902Y0209690
X0577685Y0209690
X0583615Y0209690
X0584511Y0221501
X0589190Y0209900
X0592886Y0209900
X0587779Y0221344
X0597436Y0209690
X0600516Y0209690
X0606671Y0209815
X0608039Y0218863
X0607685Y0215713
X0612331Y0209690
X0620473Y0209690
X0638300Y0209206
X0646800Y0209603
X0644800Y0209600
X0581661Y0048666
X0597409Y0048666
X0597409Y0090005
X0597409Y0107721
X0617094Y0070320
X0621031Y0048666
X0640717Y0048666
X0637102Y0060866
X0579693Y0182524
X0577724Y0200241
X0597410Y0121501
X0597409Y0141186
X0597409Y0180556
X0597409Y0200241
X0617094Y0160871
X0613157Y0180556
X0636780Y0180556
X0640717Y0200241
X0656102Y0180556
X0654300Y0200100
X0654400Y0205000
X0651651Y0209500
X0604594Y0012150
X0519181Y0012088
X0628000Y0217134
X0602134Y0012150
X0517181Y0012112
X0630000Y0217110
X0611287Y0010083
X0620898Y0217950
X0535894Y0219139
X0608827Y0010083
X0623398Y0218001
X0538354Y0219139
X0545047Y0217072
X0542587Y0217072
X0526283Y0011272
X0523783Y0011221
X0522345Y0008880
X0599669Y0010504
X0547512Y0218718
X0624836Y0220342
X0548183Y0216438
X0627336Y0220393
X0643472Y0015946
X0503709Y0213276
X0519845Y0008829
X0598998Y0012784
M30
